%YAML 1.1
%TAG !u! tag:unity3d.com,2011:
--- !u!1001 &1529494920807414127
PrefabInstance:
  m_ObjectHideFlags: 0
  serializedVersion: 2
  m_Modification:
    m_TransformParent: {fileID: 0}
    m_Modifications:
    - target: {fileID: 7661598843353685866, guid: bd1965a6774271846a9b64ccd148d137, type: 3}
      propertyPath: m_LocalPosition.x
      value: 0.89
      objectReference: {fileID: 0}
    - target: {fileID: 8386721517981981957, guid: bd1965a6774271846a9b64ccd148d137, type: 3}
      propertyPath: m_RootOrder
      value: 0
      objectReference: {fileID: 0}
    - target: {fileID: 8386721517981981957, guid: bd1965a6774271846a9b64ccd148d137, type: 3}
      propertyPath: m_LocalPosition.x
      value: 0
      objectReference: {fileID: 0}
    - target: {fileID: 8386721517981981957, guid: bd1965a6774271846a9b64ccd148d137, type: 3}
      propertyPath: m_LocalPosition.y
      value: 0
      objectReference: {fileID: 0}
    - target: {fileID: 8386721517981981957, guid: bd1965a6774271846a9b64ccd148d137, type: 3}
      propertyPath: m_LocalPosition.z
      value: -1
      objectReference: {fileID: 0}
    - target: {fileID: 8386721517981981957, guid: bd1965a6774271846a9b64ccd148d137, type: 3}
      propertyPath: m_LocalRotation.w
      value: 1
      objectReference: {fileID: 0}
    - target: {fileID: 8386721517981981957, guid: bd1965a6774271846a9b64ccd148d137, type: 3}
      propertyPath: m_LocalRotation.x
      value: 0
      objectReference: {fileID: 0}
    - target: {fileID: 8386721517981981957, guid: bd1965a6774271846a9b64ccd148d137, type: 3}
      propertyPath: m_LocalRotation.y
      value: 0
      objectReference: {fileID: 0}
    - target: {fileID: 8386721517981981957, guid: bd1965a6774271846a9b64ccd148d137, type: 3}
      propertyPath: m_LocalRotation.z
      value: 0
      objectReference: {fileID: 0}
    - target: {fileID: 8386721517981981957, guid: bd1965a6774271846a9b64ccd148d137, type: 3}
      propertyPath: m_LocalEulerAnglesHint.x
      value: 0
      objectReference: {fileID: 0}
    - target: {fileID: 8386721517981981957, guid: bd1965a6774271846a9b64ccd148d137, type: 3}
      propertyPath: m_LocalEulerAnglesHint.y
      value: 0
      objectReference: {fileID: 0}
    - target: {fileID: 8386721517981981957, guid: bd1965a6774271846a9b64ccd148d137, type: 3}
      propertyPath: m_LocalEulerAnglesHint.z
      value: 0
      objectReference: {fileID: 0}
    - target: {fileID: 8388290553427167941, guid: bd1965a6774271846a9b64ccd148d137, type: 3}
      propertyPath: m_Name
      value: Corridor_S6 Variant
      objectReference: {fileID: 0}
    m_RemovedComponents: []
  m_SourcePrefab: {fileID: 100100000, guid: bd1965a6774271846a9b64ccd148d137, type: 3}
