%YAML 1.1
%TAG !u! tag:unity3d.com,2011:
--- !u!162 &1
EditorUserSettings:
  m_ObjectHideFlags: 0
  serializedVersion: 4
  m_ConfigSettings:
    RecentlyUsedScenePath-0:
      value: 22424703114646680e0b0227036c6c111b07142f1f2b233e2867083debf42d
      flags: 0
    RecentlyUsedScenePath-1:
      value: 224247031146464e0307183b5d2057111856571f22213229602a1532eca17415ede333e5a8093c393707fc73373b0230fc0e0819ef2a04021c0fe9071ef15e061fcc0cdc
      flags: 0
    RecentlyUsedScenePath-2:
      value: 224247031146464e0307183b5d2057111856571f22213229602a1532eca17415ede333e5a8093c393707fc73250c3130e10f3d0ee51f441e1f07e917
      flags: 0
    RecentlyUsedScenePath-3:
      value: 224247031146464e0307183b5d2057111856571f22213229602a1532eca17415ede333e5a8093c393707fc73253d1536fd042a03f30801450400f41a08
      flags: 0
    RecentlyUsedScenePath-4:
      value: 224247031146464e0307183b5d2057111856571f22213229602a1532eca17415ede333e5a8092f303811e70f072c043afc453a1bfa0a1903220def0b14f12f3710d7138b0fc61608d2
      flags: 0
    RecentlyUsedScenePath-5:
      value: 224247031146464e0307183b5d2057111856571f22213229602a1532eca17415ede333e5a8092f303811e70f072c043afc453a1bfa0a1903220def0b14f12f3f18c210d154dd1115df00
      flags: 0
    RecentlyUsedScenePath-6:
      value: 224247031146464e0307183b5d2057111856571f22213229602a1532eca17415ede333e5a8093c393707fc7328310230ff051d02f905441e1f07e917
      flags: 0
    RecentlyUsedScenePath-7:
      value: 22424703114646642e1c0927003a6033170357157f0c66032e201b3aa2cb3d2ca2d422e8f52e3a2e7929e6284b1b193eff1a050ec95b5b450400f41a08
      flags: 0
    RecentlyUsedScenePath-8:
      value: 22424703114646642e1c0927003a6033170357157f0c660325260a21edef3978c4f533eca81f273d3412e3393b6e5371e704001fef
      flags: 0
    RecentlyUsedScenePath-9:
      value: 22424703114646680e0b02275f175a0302590d24253c3f
      flags: 0
    vcSharedLogLevel:
      value: 0d5e400f0650
      flags: 0
  m_VCAutomaticAdd: 1
  m_VCDebugCom: 0
  m_VCDebugCmd: 0
  m_VCDebugOut: 0
  m_SemanticMergeMode: 2
  m_VCShowFailedCheckout: 1
  m_VCOverwriteFailedCheckoutAssets: 1
  m_VCProjectOverlayIcons: 1
  m_VCHierarchyOverlayIcons: 1
  m_VCOtherOverlayIcons: 1
  m_VCAllowAsyncUpdate: 1
